1. Summary
Meeting title	Python training
Attended participants	9
Start time	9/7/22, 8:29:28 AM
End time	9/7/22, 10:03:33 AM
Meeting duration	1h 34m 5s
Average attendance time	1h 32m 25s

2. Participants
Name	First join	Last leave	In-meeting duration	Email	Participant ID (UPN)	Role
Maria Marquina Guevara	9/7/22, 8:29:34 AM	9/7/22, 10:03:30 AM	1h 33m 55s	Maria.Marquina@jala.university	Maria.Marquina@jala.university	Organizer
Diego Jauregui Salvatierra	9/7/22, 8:29:43 AM	9/7/22, 10:03:30 AM	1h 33m 46s	Diego.Jauregui@jala.university	Diego.Jauregui@jala.university	Presenter
Andres Galvis Bolivar	9/7/22, 8:29:58 AM	9/7/22, 10:03:25 AM	1h 33m 27s	Andres.Galvis@jala.university	Andres.Galvis@jala.university	Presenter
Adrian Clavijo Lopez	9/7/22, 8:30:40 AM	9/7/22, 10:03:27 AM	1h 32m 46s	Adrian.Clavijo@jala.university	Adrian.Clavijo@jala.university	Presenter
Jesus Vallecilla Solano	9/7/22, 8:30:41 AM	9/7/22, 10:03:33 AM	1h 32m 51s	Jesus.Vallecilla@jala.university	Jesus.Vallecilla@jala.university	Presenter
Sergio Mallea Morales	9/7/22, 8:30:44 AM	9/7/22, 10:03:32 AM	1h 32m 48s	Sergio.Mallea@jala.university	Sergio.Mallea@jala.university	Presenter
Martin Ferreyra	9/7/22, 8:31:53 AM	9/7/22, 10:03:27 AM	1h 31m 34s	Martin.Ferreyra@jala.university	Martin.Ferreyra@jala.university	Presenter
Jason Pineda Serna	9/7/22, 8:32:26 AM	9/7/22, 10:03:29 AM	1h 31m 3s	Jason.Pineda@jala.university	Jason.Pineda@jala.university	Presenter
Camilo Villalba Sanz	9/7/22, 8:33:50 AM	9/7/22, 10:03:29 AM	1h 29m 39s	Camilo.Villalba@jala.university	Camilo.Villalba@jala.university	Presenter

3. In-Meeting activities
Name	Join time	Leave time	Duration	Email	Role
Maria Marquina Guevara	9/7/22, 8:29:34 AM	9/7/22, 10:03:30 AM	1h 33m 55s	Maria.Marquina@jala.university	Organizer
Diego Jauregui Salvatierra	9/7/22, 8:29:43 AM	9/7/22, 10:03:30 AM	1h 33m 46s	Diego.Jauregui@jala.university	Presenter
Andres Galvis Bolivar	9/7/22, 8:29:58 AM	9/7/22, 10:03:25 AM	1h 33m 27s	Andres.Galvis@jala.university	Presenter
Adrian Clavijo Lopez	9/7/22, 8:30:40 AM	9/7/22, 10:03:27 AM	1h 32m 46s	Adrian.Clavijo@jala.university	Presenter
Jesus Vallecilla Solano	9/7/22, 8:30:41 AM	9/7/22, 10:03:33 AM	1h 32m 51s	Jesus.Vallecilla@jala.university	Presenter
Sergio Mallea Morales	9/7/22, 8:30:44 AM	9/7/22, 10:03:32 AM	1h 32m 48s	Sergio.Mallea@jala.university	Presenter
Martin Ferreyra	9/7/22, 8:31:53 AM	9/7/22, 10:03:27 AM	1h 31m 34s	Martin.Ferreyra@jala.university	Presenter
Jason Pineda Serna	9/7/22, 8:32:26 AM	9/7/22, 10:03:29 AM	1h 31m 3s	Jason.Pineda@jala.university	Presenter
Camilo Villalba Sanz	9/7/22, 8:33:50 AM	9/7/22, 10:03:29 AM	1h 29m 39s	Camilo.Villalba@jala.university	Presenter
